<?xml version="1.0" encoding="UTF-8" standalone="no"?>
<!-- Created with Inkscape (http://www.inkscape.org/) -->

<svg
   xmlns:dc="http://purl.org/dc/elements/1.1/"
   xmlns:cc="http://creativecommons.org/ns#"
   xmlns:rdf="http://www.w3.org/1999/02/22-rdf-syntax-ns#"
   xmlns:svg="http://www.w3.org/2000/svg"
   xmlns="http://www.w3.org/2000/svg"
   xmlns:sodipodi="http://sodipodi.sourceforge.net/DTD/sodipodi-0.dtd"
   xmlns:inkscape="http://www.inkscape.org/namespaces/inkscape"
   width="329.33273"
   height="346.38715"
   id="svg2"
   version="1.1"
   inkscape:version="0.48.4 r9939"
   sodipodi:docname="NCAA_goal_problem_elements.svg">
  <defs
     id="defs4">
    <marker
       inkscape:stockid="Arrow2Lend"
       orient="auto"
       refY="0"
       refX="0"
       id="Arrow2Lend"
       style="overflow:visible">
      <path
         id="path5232"
         style="fill-rule:evenodd;stroke-width:0.625;stroke-linejoin:round"
         d="M 8.7185878,4.0337352 -2.2072895,0.01601326 8.7185884,-4.0017078 c -1.7454984,2.3720609 -1.7354408,5.6174519 -6e-7,8.035443 z"
         transform="matrix(-1.1,0,0,-1.1,-1.1,0)"
         inkscape:connector-curvature="0" />
    </marker>
    <inkscape:path-effect
       effect="skeletal"
       id="path-effect7240"
       is_visible="true"
       pattern="M 0,0 0,10 10,5 z"
       copytype="single_stretched"
       prop_scale="1"
       scale_y_rel="false"
       spacing="0"
       normal_offset="0"
       tang_offset="0"
       prop_units="false"
       vertical_pattern="false"
       fuse_tolerance="0" />
    <marker
       style="overflow:visible"
       id="DistanceStart"
       refX="0"
       refY="0"
       orient="auto"
       inkscape:stockid="DistanceStart">
      <g
         id="g2300">
        <path
           style="fill:none;stroke:#ffffff;stroke-width:1.14999998;stroke-linecap:square"
           d="M 0,0 2,0"
           id="path2306"
           inkscape:connector-curvature="0" />
        <path
           style="fill:#000000;fill-rule:evenodd;stroke:none"
           d="M 0,0 13,4 9,0 13,-4 0,0 z"
           id="path2302"
           inkscape:connector-curvature="0" />
        <path
           style="fill:none;stroke:#000000;stroke-width:1;stroke-linecap:square"
           d="M 0,-4 0,40"
           id="path2304"
           inkscape:connector-curvature="0" />
      </g>
    </marker>
    <marker
       inkscape:stockid="Arrow1Mend"
       orient="auto"
       refY="0"
       refX="0"
       id="Arrow1Mend"
       style="overflow:visible">
      <path
         id="path5220"
         d="M 0,0 5,-5 -12.5,0 5,5 0,0 z"
         style="fill-rule:evenodd;stroke:#000000;stroke-width:1pt"
         transform="matrix(-0.4,0,0,-0.4,-4,0)"
         inkscape:connector-curvature="0" />
    </marker>
    <marker
       inkscape:stockid="Arrow1Sstart"
       orient="auto"
       refY="0"
       refX="0"
       id="Arrow1Sstart"
       style="overflow:visible">
      <path
         id="path5223"
         d="M 0,0 5,-5 -12.5,0 5,5 0,0 z"
         style="fill-rule:evenodd;stroke:#000000;stroke-width:1pt"
         transform="matrix(0.2,0,0,0.2,1.2,0)"
         inkscape:connector-curvature="0" />
    </marker>
    <marker
       inkscape:stockid="Arrow1Send"
       orient="auto"
       refY="0"
       refX="0"
       id="Arrow1Send"
       style="overflow:visible">
      <path
         id="path5226"
         d="M 0,0 5,-5 -12.5,0 5,5 0,0 z"
         style="fill-rule:evenodd;stroke:#000000;stroke-width:1pt"
         transform="matrix(-0.2,0,0,-0.2,-1.2,0)"
         inkscape:connector-curvature="0" />
    </marker>
    <marker
       inkscape:stockid="Arrow1Mstart"
       orient="auto"
       refY="0"
       refX="0"
       id="Arrow1Mstart"
       style="overflow:visible">
      <path
         id="path5217"
         d="M 0,0 5,-5 -12.5,0 5,5 0,0 z"
         style="fill-rule:evenodd;stroke:#000000;stroke-width:1pt"
         transform="matrix(0.4,0,0,0.4,4,0)"
         inkscape:connector-curvature="0" />
    </marker>
    <inkscape:path-effect
       effect="skeletal"
       id="path-effect4257"
       is_visible="true"
       pattern="M 0,0 0,10 10,5 z"
       copytype="single_stretched"
       prop_scale="1"
       scale_y_rel="false"
       spacing="0"
       normal_offset="0"
       tang_offset="0"
       prop_units="false"
       vertical_pattern="false"
       fuse_tolerance="0" />
    <inkscape:path-effect
       effect="skeletal"
       id="path-effect4253"
       is_visible="true"
       pattern="M 0,0 0,10 10,5 z"
       copytype="single_stretched"
       prop_scale="1"
       scale_y_rel="false"
       spacing="0"
       normal_offset="0"
       tang_offset="0"
       prop_units="false"
       vertical_pattern="false"
       fuse_tolerance="0" />
    <inkscape:path-effect
       effect="skeletal"
       id="path-effect4249"
       is_visible="true"
       pattern="m -16.29147,6.5443272 0,9.9999998 9.9999998,-5 z"
       copytype="single_stretched"
       prop_scale="1"
       scale_y_rel="false"
       spacing="0"
       normal_offset="0"
       tang_offset="0"
       prop_units="false"
       vertical_pattern="false"
       fuse_tolerance="0" />
    <marker
       inkscape:stockid="Arrow1Mstart"
       orient="auto"
       refY="0"
       refX="0"
       id="Arrow1Mstart-8"
       style="overflow:visible">
      <path
         inkscape:connector-curvature="0"
         id="path5217-2"
         d="M 0,0 5,-5 -12.5,0 5,5 0,0 z"
         style="fill-rule:evenodd;stroke:#000000;stroke-width:1pt"
         transform="matrix(0.4,0,0,0.4,4,0)" />
    </marker>
    <marker
       inkscape:stockid="Arrow1Mend"
       orient="auto"
       refY="0"
       refX="0"
       id="Arrow1Mend-4"
       style="overflow:visible">
      <path
         inkscape:connector-curvature="0"
         id="path5220-5"
         d="M 0,0 5,-5 -12.5,0 5,5 0,0 z"
         style="fill-rule:evenodd;stroke:#000000;stroke-width:1pt"
         transform="matrix(-0.4,0,0,-0.4,-4,0)" />
    </marker>
    <marker
       inkscape:stockid="Arrow1Mstart"
       orient="auto"
       refY="0"
       refX="0"
       id="Arrow1Mstart-5"
       style="overflow:visible">
      <path
         inkscape:connector-curvature="0"
         id="path5217-27"
         d="M 0,0 5,-5 -12.5,0 5,5 0,0 z"
         style="fill-rule:evenodd;stroke:#000000;stroke-width:1pt"
         transform="matrix(0.4,0,0,0.4,4,0)" />
    </marker>
    <marker
       inkscape:stockid="Arrow1Mend"
       orient="auto"
       refY="0"
       refX="0"
       id="Arrow1Mend-6"
       style="overflow:visible">
      <path
         inkscape:connector-curvature="0"
         id="path5220-1"
         d="M 0,0 5,-5 -12.5,0 5,5 0,0 z"
         style="fill-rule:evenodd;stroke:#000000;stroke-width:1pt"
         transform="matrix(-0.4,0,0,-0.4,-4,0)" />
    </marker>
    <marker
       inkscape:stockid="Arrow1Mstart"
       orient="auto"
       refY="0"
       refX="0"
       id="Arrow1Mstart-1"
       style="overflow:visible">
      <path
         inkscape:connector-curvature="0"
         id="path5217-6"
         d="M 0,0 5,-5 -12.5,0 5,5 0,0 z"
         style="fill-rule:evenodd;stroke:#000000;stroke-width:1pt"
         transform="matrix(0.4,0,0,0.4,4,0)" />
    </marker>
    <marker
       inkscape:stockid="Arrow1Mend"
       orient="auto"
       refY="0"
       refX="0"
       id="Arrow1Mend-8"
       style="overflow:visible">
      <path
         inkscape:connector-curvature="0"
         id="path5220-57"
         d="M 0,0 5,-5 -12.5,0 5,5 0,0 z"
         style="fill-rule:evenodd;stroke:#000000;stroke-width:1pt"
         transform="matrix(-0.4,0,0,-0.4,-4,0)" />
    </marker>
    <marker
       inkscape:stockid="Arrow1Mend"
       orient="auto"
       refY="0"
       refX="0"
       id="Arrow1Mend-8-8"
       style="overflow:visible">
      <path
         inkscape:connector-curvature="0"
         id="path5220-57-9"
         d="M 0,0 5,-5 -12.5,0 5,5 0,0 z"
         style="fill-rule:evenodd;stroke:#000000;stroke-width:1pt"
         transform="matrix(-0.4,0,0,-0.4,-4,0)" />
    </marker>
  </defs>
  <sodipodi:namedview
     id="base"
     pagecolor="#ffffff"
     bordercolor="#666666"
     borderopacity="1.0"
     inkscape:pageopacity="0.0"
     inkscape:pageshadow="2"
     inkscape:zoom="5.6"
     inkscape:cx="6.0598806"
     inkscape:cy="58.611608"
     inkscape:document-units="px"
     inkscape:current-layer="layer1"
     showgrid="false"
     inkscape:window-width="1920"
     inkscape:window-height="1018"
     inkscape:window-x="-8"
     inkscape:window-y="122"
     inkscape:window-maximized="1"
     fit-margin-top="10"
     fit-margin-left="10"
     fit-margin-right="10"
     fit-margin-bottom="10" />
  <metadata
     id="metadata7">
    <rdf:RDF>
      <cc:Work
         rdf:about="">
        <dc:format>image/svg+xml</dc:format>
        <dc:type
           rdf:resource="http://purl.org/dc/dcmitype/StillImage" />
        <dc:title></dc:title>
      </cc:Work>
    </rdf:RDF>
  </metadata>
  <g
     inkscape:label="Layer 1"
     inkscape:groupmode="layer"
     id="layer1"
     transform="translate(-199.10547,-316.6936)">
    <path
       style="fill:#000000;stroke:#0000ff;stroke-width:2.13621283;stroke-linecap:butt;stroke-linejoin:miter;stroke-miterlimit:4;stroke-opacity:1;stroke-dasharray:none"
       d="m 242.39583,335.25689 0,156.4478"
       id="path4101"
       inkscape:connector-curvature="0" />
    <path
       style="fill:none;stroke:#0000ff;stroke-width:2.13621283;stroke-linecap:butt;stroke-linejoin:miter;stroke-miterlimit:4;stroke-opacity:1;stroke-dasharray:none"
       d="m 491.0939,335.25689 0,156.4478"
       id="path4101-1"
       inkscape:connector-curvature="0" />
    <path
       style="fill:none;stroke:#00ff00;stroke-width:2.13621283;stroke-linecap:butt;stroke-linejoin:miter;stroke-miterlimit:4;stroke-opacity:1;stroke-dasharray:none"
       d="m 367.06875,491.70469 -124.72706,0"
       id="path4101-1-7"
       inkscape:connector-curvature="0" />
    <path
       style="fill:none;stroke:#00ff00;stroke-width:2.13621283;stroke-linecap:butt;stroke-linejoin:miter;stroke-miterlimit:4;stroke-opacity:1;stroke-dasharray:none"
       d="m 491.41778,491.70469 -124.72705,0"
       id="path4101-1-7-0"
       inkscape:connector-curvature="0" />
    <path
       style="fill:none;stroke:#0000ff;stroke-width:2.13621283;stroke-linecap:butt;stroke-linejoin:miter;stroke-miterlimit:4;stroke-opacity:1;stroke-dasharray:none"
       d="m 367.01461,491.70469 0,156.44781"
       id="path4101-1-9"
       inkscape:connector-curvature="0" />
    <g
       id="g8328"
       transform="matrix(0.8,0,0,0.8,48.48788,77.101922)">
      <text
         sodipodi:linespacing="125%"
         id="text8202"
         y="421.32623"
         x="253.66458"
         style="font-size:40px;font-style:normal;font-weight:normal;line-height:125%;letter-spacing:0px;word-spacing:0px;fill:#000000;fill-opacity:1;stroke:none;font-family:Sans"
         xml:space="preserve"><tspan
           style="font-size:22px;font-weight:normal;fill:#000000;-inkscape-font-specification:Sans"
           y="421.32623"
           x="253.66458"
           id="tspan8204"
           sodipodi:role="line">1</tspan></text>
      <rect
         y="400.8728"
         x="248.68076"
         height="23.852322"
         width="23.852324"
         id="rect8206"
         style="fill:#000000;fill-opacity:0;stroke:#000000;stroke-width:2.38118601;stroke-miterlimit:2;stroke-opacity:1;stroke-dasharray:none;stroke-dashoffset:0" />
    </g>
    <g
       id="g8348"
       transform="matrix(0.8,0,0,0.8,57.579253,96.799897)">
      <text
         sodipodi:linespacing="125%"
         id="text8202-4"
         y="482.44046"
         x="296.59604"
         style="font-size:40px;font-style:normal;font-weight:normal;line-height:125%;letter-spacing:0px;word-spacing:0px;fill:#000000;fill-opacity:1;stroke:none;font-family:Sans"
         xml:space="preserve"><tspan
           style="font-size:22px;font-weight:normal;fill:#000000;-inkscape-font-specification:Sans"
           y="482.44046"
           x="296.59604"
           id="tspan8204-3"
           sodipodi:role="line">2</tspan></text>
      <rect
         y="462.4921"
         x="291.10715"
         height="23.852322"
         width="23.852324"
         id="rect8206-1"
         style="fill:#000000;fill-opacity:0;stroke:#000000;stroke-width:2.38118601;stroke-miterlimit:2;stroke-opacity:1;stroke-dasharray:none;stroke-dashoffset:0" />
    </g>
    <g
       id="g8343"
       transform="matrix(0.8,0,0,0.8,71.721389,107.91157)">
      <text
         sodipodi:linespacing="125%"
         id="text8202-4-2"
         y="584.97095"
         x="343.06305"
         style="font-size:40px;font-style:normal;font-weight:normal;line-height:125%;letter-spacing:0px;word-spacing:0px;fill:#000000;fill-opacity:1;stroke:none;font-family:Sans"
         xml:space="preserve"><tspan
           style="font-size:22px;font-weight:normal;fill:#000000;-inkscape-font-specification:Sans"
           y="584.97095"
           x="343.06305"
           id="tspan8204-3-3"
           sodipodi:role="line">3</tspan></text>
      <rect
         y="565.02258"
         x="337.57416"
         height="23.852322"
         width="23.852324"
         id="rect8206-1-3"
         style="fill:#000000;fill-opacity:0;stroke:#000000;stroke-width:2.38118601;stroke-miterlimit:2;stroke-opacity:1;stroke-dasharray:none;stroke-dashoffset:0" />
    </g>
    <g
       id="g8338"
       transform="matrix(0.8,0,0,0.8,85.358448,97.304973)">
      <text
         sodipodi:linespacing="125%"
         id="text8202-4-2-4"
         y="483.45062"
         x="427.91589"
         style="font-size:40px;font-style:normal;font-weight:normal;line-height:125%;letter-spacing:0px;word-spacing:0px;fill:#000000;fill-opacity:1;stroke:none;font-family:Sans"
         xml:space="preserve"><tspan
           style="font-size:22px;font-weight:normal;fill:#000000;-inkscape-font-specification:Sans"
           y="483.45062"
           x="427.91589"
           id="tspan8204-3-3-1"
           sodipodi:role="line">4</tspan></text>
      <rect
         y="463.50226"
         x="422.427"
         height="23.852322"
         width="23.852324"
         id="rect8206-1-3-1"
         style="fill:#000000;fill-opacity:0;stroke:#000000;stroke-width:2.38118601;stroke-miterlimit:2;stroke-opacity:1;stroke-dasharray:none;stroke-dashoffset:0" />
    </g>
    <g
       id="g8333"
       transform="matrix(0.8,0,0,0.8,99.500584,75.081617)">
      <text
         sodipodi:linespacing="125%"
         id="text8202-4-2-4-3"
         y="417.28564"
         x="464.78644"
         style="font-size:40px;font-style:normal;font-weight:normal;line-height:125%;letter-spacing:0px;word-spacing:0px;fill:#000000;fill-opacity:1;stroke:none;font-family:Sans"
         xml:space="preserve"><tspan
           style="font-size:22px;font-weight:normal;fill:#000000;-inkscape-font-specification:Sans"
           y="417.28564"
           x="464.78644"
           id="tspan8204-3-3-1-8"
           sodipodi:role="line">5</tspan></text>
      <rect
         y="397.33728"
         x="459.29755"
         height="23.852322"
         width="23.852324"
         id="rect8206-1-3-1-7"
         style="fill:#000000;fill-opacity:0;stroke:#000000;stroke-width:2.38118601;stroke-miterlimit:2;stroke-opacity:1;stroke-dasharray:none;stroke-dashoffset:0" />
    </g>
    <path
       sodipodi:type="arc"
       style="fill:#ff0000;fill-opacity:1;stroke:#ff0000;stroke-width:0.1;stroke-miterlimit:2;stroke-opacity:1;stroke-dasharray:none;stroke-dashoffset:0"
       id="path8353"
       sodipodi:cx="53.538086"
       sodipodi:cy="31.23041"
       sodipodi:rx="3.0304577"
       sodipodi:ry="3.0304577"
       d="m 56.568544,31.23041 c 0,1.673675 -1.356782,3.030457 -3.030458,3.030457 -1.673676,0 -3.030458,-1.356782 -3.030458,-3.030457 0,-1.673676 1.356782,-3.030458 3.030458,-3.030458 1.673676,0 3.030458,1.356782 3.030458,3.030458 z"
       transform="translate(188.88609,303.7868)" />
    <path
       sodipodi:type="arc"
       style="fill:#ff0000;fill-opacity:1;stroke:#ff0000;stroke-width:0.1;stroke-miterlimit:2;stroke-opacity:1;stroke-dasharray:none;stroke-dashoffset:0"
       id="path8353-4"
       sodipodi:cx="53.538086"
       sodipodi:cy="31.23041"
       sodipodi:rx="3.0304577"
       sodipodi:ry="3.0304577"
       d="m 56.568544,31.23041 c 0,1.673675 -1.356782,3.030457 -3.030458,3.030457 -1.673676,0 -3.030458,-1.356782 -3.030458,-3.030457 0,-1.673676 1.356782,-3.030458 3.030458,-3.030458 1.673676,0 3.030458,1.356782 3.030458,3.030458 z"
       transform="translate(189.39117,459.35029)" />
    <path
       sodipodi:type="arc"
       style="fill:#ff0000;fill-opacity:1;stroke:#ff0000;stroke-width:0.1;stroke-miterlimit:2;stroke-opacity:1;stroke-dasharray:none;stroke-dashoffset:0"
       id="path8353-4-2"
       sodipodi:cx="53.538086"
       sodipodi:cy="31.23041"
       sodipodi:rx="3.0304577"
       sodipodi:ry="3.0304577"
       d="m 56.568544,31.23041 c 0,1.673675 -1.356782,3.030457 -3.030458,3.030457 -1.673676,0 -3.030458,-1.356782 -3.030458,-3.030457 0,-1.673676 1.356782,-3.030458 3.030458,-3.030458 1.673676,0 3.030458,1.356782 3.030458,3.030458 z"
       transform="translate(313.63993,614.4087)" />
    <path
       sodipodi:type="arc"
       style="fill:#ff0000;fill-opacity:1;stroke:#ff0000;stroke-width:0.1;stroke-miterlimit:2;stroke-opacity:1;stroke-dasharray:none;stroke-dashoffset:0"
       id="path8353-4-7"
       sodipodi:cx="53.538086"
       sodipodi:cy="31.23041"
       sodipodi:rx="3.0304577"
       sodipodi:ry="3.0304577"
       d="m 56.568544,31.23041 c 0,1.673675 -1.356782,3.030457 -3.030458,3.030457 -1.673676,0 -3.030458,-1.356782 -3.030458,-3.030457 0,-1.673676 1.356782,-3.030458 3.030458,-3.030458 1.673676,0 3.030458,1.356782 3.030458,3.030458 z"
       transform="translate(313.13485,460.36043)" />
    <path
       sodipodi:type="arc"
       style="fill:#ff0000;fill-opacity:1;stroke:#ff0000;stroke-width:0.1;stroke-miterlimit:2;stroke-opacity:1;stroke-dasharray:none;stroke-dashoffset:0"
       id="path8353-4-79"
       sodipodi:cx="53.538086"
       sodipodi:cy="31.23041"
       sodipodi:rx="3.0304577"
       sodipodi:ry="3.0304577"
       d="m 56.568544,31.23041 c 0,1.673675 -1.356782,3.030457 -3.030458,3.030457 -1.673676,0 -3.030458,-1.356782 -3.030458,-3.030457 0,-1.673676 1.356782,-3.030458 3.030458,-3.030458 1.673676,0 3.030458,1.356782 3.030458,3.030458 z"
       transform="translate(437.38362,460.36044)" />
    <path
       sodipodi:type="arc"
       style="fill:#ff0000;fill-opacity:1;stroke:#ff0000;stroke-width:0.1;stroke-miterlimit:2;stroke-opacity:1;stroke-dasharray:none;stroke-dashoffset:0"
       id="path8353-4-3"
       sodipodi:cx="53.538086"
       sodipodi:cy="31.23041"
       sodipodi:rx="3.0304577"
       sodipodi:ry="3.0304577"
       d="m 56.568544,31.23041 c 0,1.673675 -1.356782,3.030457 -3.030458,3.030457 -1.673676,0 -3.030458,-1.356782 -3.030458,-3.030457 0,-1.673676 1.356782,-3.030458 3.030458,-3.030458 1.673676,0 3.030458,1.356782 3.030458,3.030458 z"
       transform="translate(437.38362,303.78679)" />
    <path
       sodipodi:type="arc"
       style="fill:#ff0000;fill-opacity:0;stroke:#000000;stroke-width:2;stroke-miterlimit:2;stroke-opacity:1;stroke-dasharray:none;stroke-dashoffset:0"
       id="path8414"
       sodipodi:cx="57.831234"
       sodipodi:cy="36.53371"
       sodipodi:rx="18.435284"
       sodipodi:ry="18.435284"
       d="m 76.266518,36.53371 c 0,10.181527 -8.253758,18.435284 -18.435284,18.435284 -10.181526,0 -18.435284,-8.253757 -18.435284,-18.435284 0,-10.181526 8.253758,-18.435283 18.435284,-18.435283 10.181526,0 18.435284,8.253757 18.435284,18.435283 z"
       transform="matrix(0.5322233,0,0,0.5322233,226.54479,318.35104)" />
    <text
       xml:space="preserve"
       style="font-size:32px;font-style:normal;font-weight:normal;line-height:125%;letter-spacing:0px;word-spacing:0px;fill:#000000;fill-opacity:1;stroke:none;font-family:Sans"
       x="252.07707"
       y="344.12015"
       id="text8202-9"
       sodipodi:linespacing="125%"><tspan
         sodipodi:role="line"
         id="tspan8204-8"
         x="252.07707"
         y="344.12015"
         style="font-size:17.60000038px;font-weight:normal;fill:#000000;-inkscape-font-specification:Sans">1</tspan></text>
    <path
       sodipodi:type="arc"
       style="fill:#ff0000;fill-opacity:0;stroke:#000000;stroke-width:2;stroke-miterlimit:2;stroke-opacity:1;stroke-dasharray:none;stroke-dashoffset:0"
       id="path8414-5"
       sodipodi:cx="57.831234"
       sodipodi:cy="36.53371"
       sodipodi:rx="18.435284"
       sodipodi:ry="18.435284"
       d="m 76.266518,36.53371 c 0,10.181527 -8.253758,18.435284 -18.435284,18.435284 -10.181526,0 -18.435284,-8.253757 -18.435284,-18.435284 0,-10.181526 8.253758,-18.435283 18.435284,-18.435283 10.181526,0 18.435284,8.253757 18.435284,18.435283 z"
       transform="matrix(0.5322233,0,0,0.5322233,217.70597,486.2889)" />
    <text
       xml:space="preserve"
       style="font-size:32px;font-style:normal;font-weight:normal;line-height:125%;letter-spacing:0px;word-spacing:0px;fill:#000000;fill-opacity:1;stroke:none;font-family:Sans"
       x="243.23822"
       y="511.55292"
       id="text8202-9-0"
       sodipodi:linespacing="125%"><tspan
         sodipodi:role="line"
         id="tspan8204-8-2"
         x="243.23822"
         y="511.55292"
         style="font-size:17.60000038px;font-weight:normal;fill:#000000;-inkscape-font-specification:Sans">2</tspan></text>
    <path
       sodipodi:type="arc"
       style="fill:#ff0000;fill-opacity:0;stroke:#000000;stroke-width:2;stroke-miterlimit:2;stroke-opacity:1;stroke-dasharray:none;stroke-dashoffset:0"
       id="path8414-5-8"
       sodipodi:cx="57.831234"
       sodipodi:cy="36.53371"
       sodipodi:rx="18.435284"
       sodipodi:ry="18.435284"
       d="m 76.266518,36.53371 c 0,10.181527 -8.253758,18.435284 -18.435284,18.435284 -10.181526,0 -18.435284,-8.253757 -18.435284,-18.435284 0,-10.181526 8.253758,-18.435283 18.435284,-18.435283 10.181526,0 18.435284,8.253757 18.435284,18.435283 z"
       transform="matrix(0.5322233,0,0,0.5322233,336.90396,456.48936)" />
    <text
       xml:space="preserve"
       style="font-size:32px;font-style:normal;font-weight:normal;line-height:125%;letter-spacing:0px;word-spacing:0px;fill:#000000;fill-opacity:1;stroke:none;font-family:Sans"
       x="362.43622"
       y="481.75351"
       id="text8202-9-0-6"
       sodipodi:linespacing="125%"><tspan
         sodipodi:role="line"
         id="tspan8204-8-2-0"
         x="362.43622"
         y="481.75351"
         style="font-size:17.60000038px;font-weight:normal;fill:#000000;-inkscape-font-specification:Sans">3</tspan></text>
    <path
       sodipodi:type="arc"
       style="fill:#ff0000;fill-opacity:0;stroke:#000000;stroke-width:2;stroke-miterlimit:2;stroke-opacity:1;stroke-dasharray:none;stroke-dashoffset:0"
       id="path8414-5-2"
       sodipodi:cx="57.831234"
       sodipodi:cy="36.53371"
       sodipodi:rx="18.435284"
       sodipodi:ry="18.435284"
       d="m 76.266518,36.53371 c 0,10.181527 -8.253758,18.435284 -18.435284,18.435284 -10.181526,0 -18.435284,-8.253757 -18.435284,-18.435284 0,-10.181526 8.253758,-18.435283 18.435284,-18.435283 10.181526,0 18.435284,8.253757 18.435284,18.435283 z"
       transform="matrix(0.5322233,0,0,0.5322233,352.05625,622.65949)" />
    <text
       xml:space="preserve"
       style="font-size:32px;font-style:normal;font-weight:normal;line-height:125%;letter-spacing:0px;word-spacing:0px;fill:#000000;fill-opacity:1;stroke:none;font-family:Sans"
       x="377.5885"
       y="647.92352"
       id="text8202-9-0-4"
       sodipodi:linespacing="125%"><tspan
         sodipodi:role="line"
         id="tspan8204-8-2-8"
         x="377.5885"
         y="647.92352"
         style="font-size:17.60000038px;font-weight:normal;fill:#000000;-inkscape-font-specification:Sans">4</tspan></text>
    <path
       sodipodi:type="arc"
       style="fill:#ff0000;fill-opacity:0;stroke:#000000;stroke-width:2;stroke-miterlimit:2;stroke-opacity:1;stroke-dasharray:none;stroke-dashoffset:0"
       id="path8414-5-6"
       sodipodi:cx="57.831234"
       sodipodi:cy="36.53371"
       sodipodi:rx="18.435284"
       sodipodi:ry="18.435284"
       d="m 76.266518,36.53371 c 0,10.181527 -8.253758,18.435284 -18.435284,18.435284 -10.181526,0 -18.435284,-8.253757 -18.435284,-18.435284 0,-10.181526 8.253758,-18.435283 18.435284,-18.435283 10.181526,0 18.435284,8.253757 18.435284,18.435283 z"
       transform="matrix(0.5322233,0,0,0.5322233,468.72887,484.77366)" />
    <text
       xml:space="preserve"
       style="font-size:32px;font-style:normal;font-weight:normal;line-height:125%;letter-spacing:0px;word-spacing:0px;fill:#000000;fill-opacity:1;stroke:none;font-family:Sans"
       x="494.26111"
       y="510.03766"
       id="text8202-9-0-5"
       sodipodi:linespacing="125%"><tspan
         sodipodi:role="line"
         id="tspan8204-8-2-09"
         x="494.26111"
         y="510.03766"
         style="font-size:17.60000038px;font-weight:normal;fill:#000000;-inkscape-font-specification:Sans">5</tspan></text>
    <path
       sodipodi:type="arc"
       style="fill:#ff0000;fill-opacity:0;stroke:#000000;stroke-width:2;stroke-miterlimit:2;stroke-opacity:1;stroke-dasharray:none;stroke-dashoffset:0"
       id="path8414-5-0"
       sodipodi:cx="57.831234"
       sodipodi:cy="36.53371"
       sodipodi:rx="18.435284"
       sodipodi:ry="18.435284"
       d="m 76.266518,36.53371 c 0,10.181527 -8.253758,18.435284 -18.435284,18.435284 -10.181526,0 -18.435284,-8.253757 -18.435284,-18.435284 0,-10.181526 8.253758,-18.435283 18.435284,-18.435283 10.181526,0 18.435284,8.253757 18.435284,18.435283 z"
       transform="matrix(0.5322233,0,0,0.5322233,477.31516,317.59342)" />
    <text
       xml:space="preserve"
       style="font-size:32px;font-style:normal;font-weight:normal;line-height:125%;letter-spacing:0px;word-spacing:0px;fill:#000000;fill-opacity:1;stroke:none;font-family:Sans"
       x="502.84741"
       y="342.85745"
       id="text8202-9-0-0"
       sodipodi:linespacing="125%"><tspan
         sodipodi:role="line"
         id="tspan8204-8-2-6"
         x="502.84741"
         y="342.85745"
         style="font-size:17.60000038px;font-weight:normal;fill:#000000;-inkscape-font-specification:Sans">6</tspan></text>
    <path
       style="fill:none;stroke:#000000;stroke-width:1;stroke-linecap:butt;stroke-linejoin:miter;stroke-miterlimit:4;stroke-opacity:1;stroke-dasharray:none;marker-end:url(#Arrow1Mend-8)"
       d="m -17.172593,334.13715 66.164991,0"
       id="path8531"
       inkscape:connector-curvature="0"
       transform="translate(228.14119,316.6936)" />
    <text
       xml:space="preserve"
       style="font-size:32px;font-style:normal;font-weight:normal;line-height:125%;letter-spacing:0px;word-spacing:0px;fill:#000000;fill-opacity:1;stroke:none;font-family:Sans"
       x="275.21683"
       y="646.67133"
       id="text8202-9-0-4-1"
       sodipodi:linespacing="125%"><tspan
         sodipodi:role="line"
         id="tspan8204-8-2-8-3"
         x="275.21683"
         y="646.67133"
         style="font-size:17.60000038px;font-weight:normal;fill:#000000;font-family:Times New Roman;-inkscape-font-specification:Times New Roman">x</tspan></text>
    <path
       style="fill:none;stroke:#000000;stroke-width:1;stroke-linecap:butt;stroke-linejoin:miter;stroke-miterlimit:4;stroke-opacity:1;stroke-dasharray:none;marker-end:url(#Arrow1Mend-8)"
       d="m 211.35547,651.26215 0,-66.16499"
       id="path8531-3"
       inkscape:connector-curvature="0" />
    <text
       xml:space="preserve"
       style="font-size:32px;font-style:normal;font-weight:normal;line-height:125%;letter-spacing:0px;word-spacing:0px;fill:#000000;fill-opacity:1;stroke:none;font-family:Sans"
       x="214.80403"
       y="583.34778"
       id="text8202-9-0-4-1-4"
       sodipodi:linespacing="125%"><tspan
         sodipodi:role="line"
         id="tspan8204-8-2-8-3-4"
         x="214.80403"
         y="583.34778"
         style="font-size:17.60000038px;font-weight:normal;fill:#000000;font-family:Times New Roman;-inkscape-font-specification:Times New Roman">y</tspan></text>
  </g>
</svg>
